{
  "code": 200,
  "meta": {
    "pagination": {
      "total": 1902,
      "pages": 96,
      "page": 1,
      "limit": 20
    }
  },
  "data": [
    {
      "id": 24,
      "user_id": 21,
      "title": "Chirographum patria tumultus defluo causa veniam vespillo.",
      "completed": true,
      "created_at": "2021-05-19T03:50:04.211+05:30",
      "updated_at": "2021-05-19T03:50:04.211+05:30"
    },
    {
      "id": 25,
      "user_id": 21,
      "title": "Volva canonicus omnis vox certus odio tolero vigor.",
      "completed": true,
      "created_at": "2021-05-19T03:50:04.213+05:30",
      "updated_at": "2021-05-19T03:50:04.213+05:30"
    },
    {
      "id": 26,
      "user_id": 21,
      "title": "Vicinus creber pecto tempora tam solutio comis vinculum delectatio adipiscor.",
      "completed": true,
      "created_at": "2021-05-19T03:50:04.215+05:30",
      "updated_at": "2021-05-19T03:50:04.215+05:30"
    },
    {
      "id": 28,
      "user_id": 23,
      "title": "Depulso clarus officia colo corroboro.",
      "completed": true,
      "created_at": "2021-05-19T03:50:04.227+05:30",
      "updated_at": "2021-05-19T03:50:04.227+05:30"
    },
    {
      "id": 29,
      "user_id": 23,
      "title": "Currus cito vesper allatus ex ultra capillus aeger articulus toties.",
      "completed": false,
      "created_at": "2021-05-19T03:50:04.229+05:30",
      "updated_at": "2021-05-19T03:50:04.229+05:30"
    },
    {
      "id": 30,
      "user_id": 24,
      "title": "Veritatis vae theologus animus censura doloribus vita corrupti colloco.",
      "completed": false,
      "created_at": "2021-05-19T03:50:04.255+05:30",
      "updated_at": "2021-05-19T03:50:04.255+05:30"
    },
    {
      "id": 31,
      "user_id": 24,
      "title": "Charisma antea pel contego cursim.",
      "completed": true,
      "created_at": "2021-05-19T03:50:04.258+05:30",
      "updated_at": "2021-05-19T03:50:04.258+05:30"
    },
    {
      "id": 32,
      "user_id": 25,
      "title": "Vetus benevolentia abbas ab amplexus ea repellat coaegresco tametsi ancilla.",
      "completed": true,
      "created_at": "2021-05-19T03:50:04.282+05:30",
      "updated_at": "2021-05-19T03:50:04.282+05:30"
    },
    {
      "id": 33,
      "user_id": 25,
      "title": "Canto ducimus ascisco crebro adamo tollo ipsa substantia spoliatio deorsum depromo.",
      "completed": false,
      "created_at": "2021-05-19T03:50:04.285+05:30",
      "updated_at": "2021-05-19T03:50:04.285+05:30"
    },
    {
      "id": 34,
      "user_id": 26,
      "title": "Omnis curvus velit comitatus sumo ullus una.",
      "completed": false,
      "created_at": "2021-05-19T03:50:04.301+05:30",
      "updated_at": "2021-05-19T03:50:04.301+05:30"
    },
    {
      "id": 35,
      "user_id": 27,
      "title": "Bellicus caritas super tutis expedita ventosus tergiversatio canonicus esse.",
      "completed": false,
      "created_at": "2021-05-19T03:50:04.315+05:30",
      "updated_at": "2021-05-19T03:50:04.315+05:30"
    },
    {
      "id": 36,
      "user_id": 27,
      "title": "Aperio valde conqueror cena voluptatem consequuntur voluptatum conicio thesis sumo.",
      "completed": true,
      "created_at": "2021-05-19T03:50:04.318+05:30",
      "updated_at": "2021-05-19T03:50:04.318+05:30"
    },
    {
      "id": 37,
      "user_id": 29,
      "title": "Tener coma copiose explicabo eaque accedo socius thesis sophismata coniuratio.",
      "completed": true,
      "created_at": "2021-05-19T03:50:04.360+05:30",
      "updated_at": "2021-05-19T03:50:04.360+05:30"
    },
    {
      "id": 38,
      "user_id": 29,
      "title": "Spiculum spoliatio damnatio desparatus distinctio succedo adimpleo.",
      "completed": true,
      "created_at": "2021-05-19T03:50:04.362+05:30",
      "updated_at": "2021-05-19T03:50:04.362+05:30"
    },
    {
      "id": 39,
      "user_id": 29,
      "title": "Terreo triginta odio delinquo acer recusandae uredo nam uter calamitas.",
      "completed": false,
      "created_at": "2021-05-19T03:50:04.364+05:30",
      "updated_at": "2021-05-19T03:50:04.364+05:30"
    },
    {
      "id": 40,
      "user_id": 30,
      "title": "Appono aveho ars depono vehemens solus celo cum audio.",
      "completed": false,
      "created_at": "2021-05-19T03:50:04.378+05:30",
      "updated_at": "2021-05-19T03:50:04.378+05:30"
    },
    {
      "id": 41,
      "user_id": 33,
      "title": "Totidem velociter tollo adaugeo audax.",
      "completed": false,
      "created_at": "2021-05-19T03:50:04.427+05:30",
      "updated_at": "2021-05-19T03:50:04.427+05:30"
    },
    {
      "id": 42,
      "user_id": 33,
      "title": "Cras tepesco sto valens vulpes currus tandem.",
      "completed": false,
      "created_at": "2021-05-19T03:50:04.429+05:30",
      "updated_at": "2021-05-19T03:50:04.429+05:30"
    },
    {
      "id": 44,
      "user_id": 35,
      "title": "Convoco vultuosus voluptas ago cultellus cohibeo.",
      "completed": true,
      "created_at": "2021-05-19T03:50:04.453+05:30",
      "updated_at": "2021-05-19T03:50:04.453+05:30"
    },
    {
      "id": 45,
      "user_id": 35,
      "title": "Conspergo depromo talis debitis solus cum subseco benigne error.",
      "completed": true,
      "created_at": "2021-05-19T03:50:04.455+05:30",
      "updated_at": "2021-05-19T03:50:04.455+05:30"
    }
  ]
}
